tb_ElevatorFSM_extended.vcd
$date
	Fri Apr 25 22:57:07 2025
$end
$version
	ModelSim Version 10.5b
$end
$timescale
	1ps
$end

$scope module tb_ElevatorFSM_extended $end
$var parameter 32 ! CLK_HALF $end
$var parameter 32 " MOVE_CY $end
$var parameter 32 # DOOR_CY $end
$var parameter 32 $ MOVE_NS $end
$var parameter 32 % DOOR_NS $end
$var reg 1 & CLOCK_50 $end
$var reg 18 ' SW [17:0] $end
$var reg 4 ( KEY [3:0] $end
$var wire 1 ) HEX0 [6] $end
$var wire 1 * HEX0 [5] $end
$var wire 1 + HEX0 [4] $end
$var wire 1 , HEX0 [3] $end
$var wire 1 - HEX0 [2] $end
$var wire 1 . HEX0 [1] $end
$var wire 1 / HEX0 [0] $end
$var wire 1 0 LEDG [8] $end
$var wire 1 1 LEDG [7] $end
$var wire 1 2 LEDG [6] $end
$var wire 1 3 LEDG [5] $end
$var wire 1 4 LEDG [4] $end
$var wire 1 5 LEDG [3] $end
$var wire 1 6 LEDG [2] $end
$var wire 1 7 LEDG [1] $end
$var wire 1 8 LEDG [0] $end
$var wire 1 9 LEDR [3] $end
$var wire 1 : LEDR [2] $end
$var wire 1 ; LEDR [1] $end
$var wire 1 < LEDR [0] $end

$scope function time_to_floor $end
$var integer 32 = time_to_floor $end
$var integer 32 > floors $end
$upscope $end

$scope module uut $end
$var parameter 2 ? FLOOR_MIN $end
$var parameter 2 @ FLOOR_MAX $end
$var parameter 2 A S_IDLE $end
$var parameter 2 B S_MOVE $end
$var parameter 2 C S_DOOR $end
$var parameter 27 D MOVE_LIMIT $end
$var parameter 27 E DOOR_LIMIT $end
$var wire 1 F CLOCK_50 $end
$var wire 1 G KEY [3] $end
$var wire 1 H KEY [2] $end
$var wire 1 I KEY [1] $end
$var wire 1 J KEY [0] $end
$var wire 1 K SW [17] $end
$var wire 1 L SW [16] $end
$var wire 1 M SW [15] $end
$var wire 1 N SW [14] $end
$var wire 1 O SW [13] $end
$var wire 1 P SW [12] $end
$var wire 1 Q SW [11] $end
$var wire 1 R SW [10] $end
$var wire 1 S SW [9] $end
$var wire 1 T SW [8] $end
$var wire 1 U SW [7] $end
$var wire 1 V SW [6] $end
$var wire 1 W SW [5] $end
$var wire 1 X SW [4] $end
$var wire 1 Y SW [3] $end
$var wire 1 Z SW [2] $end
$var wire 1 [ SW [1] $end
$var wire 1 \ SW [0] $end
$var wire 1 ) HEX0 [6] $end
$var wire 1 * HEX0 [5] $end
$var wire 1 + HEX0 [4] $end
$var wire 1 , HEX0 [3] $end
$var wire 1 - HEX0 [2] $end
$var wire 1 . HEX0 [1] $end
$var wire 1 / HEX0 [0] $end
$var wire 1 0 LEDG [8] $end
$var wire 1 1 LEDG [7] $end
$var wire 1 2 LEDG [6] $end
$var wire 1 3 LEDG [5] $end
$var wire 1 4 LEDG [4] $end
$var wire 1 5 LEDG [3] $end
$var wire 1 6 LEDG [2] $end
$var wire 1 7 LEDG [1] $end
$var wire 1 8 LEDG [0] $end
$var wire 1 9 LEDR [3] $end
$var wire 1 : LEDR [2] $end
$var wire 1 ; LEDR [1] $end
$var wire 1 < LEDR [0] $end
$var wire 1 ] reset_n $end
$var reg 2 ^ state [1:0] $end
$var reg 1 _ dir_up $end
$var reg 2 ` floor [1:0] $end
$var reg 27 a timer [26:0] $end
$var reg 4 b cabin_req [3:0] $end
$var reg 4 c ext_req [3:0] $end
$var wire 1 d pending [3] $end
$var wire 1 e pending [2] $end
$var wire 1 f pending [1] $end
$var wire 1 g pending [0] $end
$var reg 4 h next_cabin_req [3:0] $end
$var reg 4 i next_ext_req [3:0] $end
$var reg 1 j led_door $end
$var reg 1 k led_up $end
$var reg 1 l led_dn $end
$var reg 7 m hex_reg [6:0] $end
$upscope $end
$upscope $end
$enddefinitions $end
#0
$dumpvars
0&
b100000000000000000 '
b1111 (
b0 ^
0_
b0 `
b0 a
b0 b
b0 c
b0 h
b0 i
0j
0k
0l
b1000000 m
b1010 !
b110010 "
b1100100 #
b1111101000 $
b11111010000 %
b0 ?
b11 @
b0 A
b1 B
b10 C
b110010 D
b1100100 E
bx =
bx >
0/
0.
0-
0,
0+
0*
1)
08
07
06
05
04
03
02
01
00
0<
0;
0:
09
0]
0g
0f
0e
0d
0\
0[
0Z
0Y
0X
0W
0V
0U
0T
0S
0R
0Q
0P
0O
0N
0M
0L
1K
1J
1I
1H
1G
0F
$end
#10000
1&
1F
#20000
0&
0F
#30000
1&
1F
#40000
0&
0F
#50000
1&
1F
#60000
0&
0F
#70000
1&
1F
#80000
0&
0F
#90000
1&
1F
#100000
b0 '
0&
0K
0F
1]
#110000
1&
1F
#120000
0&
0F
#130000
1&
1F
#140000
0&
0F
#150000
1&
1F
#160000
0&
0F
#170000
1&
1F
#180000
0&
0F
#190000
1&
1F
#200000
b1011 (
b10 '
0&
1[
0H
0F
#210000
1&
1F
b100 h
b10 i
b100 b
b10 c
1f
1e
1;
1:
#220000
b1111 (
b0 '
b10 >
b111110100000 =
0&
0[
1H
0F
#230000
1&
1F
1_
b1 ^
#240000
0&
0F
#250000
1&
1F
1k
b1 a
17
#260000
0&
0F
#270000
1&
1F
b10 a
#280000
0&
0F
#290000
1&
1F
b11 a
#300000
0&
0F
#310000
1&
1F
b100 a
#320000
0&
0F
#330000
1&
1F
b101 a
#340000
0&
0F
#350000
1&
1F
b110 a
#360000
0&
0F
#370000
1&
1F
b111 a
#380000
0&
0F
#390000
1&
1F
b1000 a
#400000
0&
0F
#410000
1&
1F
b1001 a
#420000
0&
0F
#430000
1&
1F
b1010 a
#440000
0&
0F
#450000
1&
1F
b1011 a
#460000
0&
0F
#470000
1&
1F
b1100 a
#480000
0&
0F
#490000
1&
1F
b1101 a
#500000
0&
0F
#510000
1&
1F
b1110 a
#520000
0&
0F
#530000
1&
1F
b1111 a
#540000
0&
0F
#550000
1&
1F
b10000 a
#560000
0&
0F
#570000
1&
1F
b10001 a
#580000
0&
0F
#590000
1&
1F
b10010 a
#600000
0&
0F
#610000
1&
1F
b10011 a
#620000
0&
0F
#630000
1&
1F
b10100 a
#640000
0&
0F
#650000
1&
1F
b10101 a
#660000
0&
0F
#670000
1&
1F
b10110 a
#680000
0&
0F
#690000
1&
1F
b10111 a
#700000
0&
0F
#710000
1&
1F
b11000 a
#720000
0&
0F
#730000
1&
1F
b11001 a
#740000
0&
0F
#750000
1&
1F
b11010 a
#760000
0&
0F
#770000
1&
1F
b11011 a
#780000
0&
0F
#790000
1&
1F
b11100 a
#800000
0&
0F
#810000
1&
1F
b11101 a
#820000
0&
0F
#830000
1&
1F
b11110 a
#840000
0&
0F
#850000
1&
1F
b11111 a
#860000
0&
0F
#870000
1&
1F
b100000 a
#880000
0&
0F
#890000
1&
1F
b100001 a
#900000
0&
0F
#910000
1&
1F
b100010 a
#920000
0&
0F
#930000
1&
1F
b100011 a
#940000
0&
0F
#950000
1&
1F
b100100 a
#960000
0&
0F
#970000
1&
1F
b100101 a
#980000
0&
0F
#990000
1&
1F
b100110 a
#1000000
0&
0F
#1010000
1&
1F
b100111 a
#1020000
0&
0F
#1030000
1&
1F
b101000 a
#1040000
0&
0F
#1050000
1&
1F
b101001 a
#1060000
0&
0F
#1070000
1&
1F
b101010 a
#1080000
0&
0F
#1090000
1&
1F
b101011 a
#1100000
0&
0F
#1110000
1&
1F
b101100 a
#1120000
0&
0F
#1130000
1&
1F
b101101 a
#1140000
0&
0F
#1150000
1&
1F
b101110 a
#1160000
0&
0F
#1170000
1&
1F
b101111 a
#1180000
0&
0F
#1190000
1&
1F
b110000 a
#1200000
0&
0F
#1210000
1&
1F
b110001 a
#1220000
0&
0F
#1230000
1&
1F
b110010 a
#1240000
0&
0F
#1250000
1&
1F
b110011 a
b0 a
b1 `
b0 ^
b1111001 m
1/
1,
1+
1*
#1260000
0&
0F
#1270000
1&
1F
b0 i
0k
b10 ^
b0 c
07
0f
0;
#1280000
0&
0F
#1290000
1&
1F
1j
b1 a
18
#1300000
0&
0F
#1310000
1&
1F
b10 a
#1320000
0&
0F
#1330000
1&
1F
b11 a
#1340000
0&
0F
#1350000
1&
1F
b100 a
#1360000
0&
0F
#1370000
1&
1F
b101 a
#1380000
0&
0F
#1390000
1&
1F
b110 a
#1400000
0&
0F
#1410000
1&
1F
b111 a
#1420000
0&
0F
#1430000
1&
1F
b1000 a
#1440000
0&
0F
#1450000
1&
1F
b1001 a
#1460000
0&
0F
#1470000
1&
1F
b1010 a
#1480000
0&
0F
#1490000
1&
1F
b1011 a
#1500000
0&
0F
#1510000
1&
1F
b1100 a
#1520000
0&
0F
#1530000
1&
1F
b1101 a
#1540000
0&
0F
#1550000
1&
1F
b1110 a
#1560000
0&
0F
#1570000
1&
1F
b1111 a
#1580000
0&
0F
#1590000
1&
1F
b10000 a
#1600000
0&
0F
#1610000
1&
1F
b10001 a
#1620000
0&
0F
#1630000
1&
1F
b10010 a
#1640000
0&
0F
#1650000
1&
1F
b10011 a
#1660000
0&
0F
#1670000
1&
1F
b10100 a
#1680000
0&
0F
#1690000
1&
1F
b10101 a
#1700000
0&
0F
#1710000
1&
1F
b10110 a
#1720000
0&
0F
#1730000
1&
1F
b10111 a
#1740000
0&
0F
#1750000
1&
1F
b11000 a
#1760000
0&
0F
#1770000
1&
1F
b11001 a
#1780000
0&
0F
#1790000
1&
1F
b11010 a
#1800000
0&
0F
#1810000
1&
1F
b11011 a
#1820000
0&
0F
#1830000
1&
1F
b11100 a
#1840000
0&
0F
#1850000
1&
1F
b11101 a
#1860000
0&
0F
#1870000
1&
1F
b11110 a
#1880000
0&
0F
#1890000
1&
1F
b11111 a
#1900000
0&
0F
#1910000
1&
1F
b100000 a
#1920000
0&
0F
#1930000
1&
1F
b100001 a
#1940000
0&
0F
#1950000
1&
1F
b100010 a
#1960000
0&
0F
#1970000
1&
1F
b100011 a
#1980000
0&
0F
#1990000
1&
1F
b100100 a
#2000000
0&
0F
#2010000
1&
1F
b100101 a
#2020000
0&
0F
#2030000
1&
1F
b100110 a
#2040000
0&
0F
#2050000
1&
1F
b100111 a
#2060000
0&
0F
#2070000
1&
1F
b101000 a
#2080000
0&
0F
#2090000
1&
1F
b101001 a
#2100000
0&
0F
#2110000
1&
1F
b101010 a
#2120000
0&
0F
#2130000
1&
1F
b101011 a
#2140000
0&
0F
#2150000
1&
1F
b101100 a
#2160000
0&
0F
#2170000
1&
1F
b101101 a
#2180000
0&
0F
#2190000
1&
1F
b101110 a
#2200000
0&
0F
#2210000
1&
1F
b101111 a
#2220000
0&
0F
#2230000
1&
1F
b110000 a
#2240000
0&
0F
#2250000
1&
1F
b110001 a
#2260000
0&
0F
#2270000
1&
1F
b110010 a
#2280000
0&
0F
#2290000
1&
1F
b110011 a
#2300000
0&
0F
#2310000
1&
1F
b110100 a
#2320000
0&
0F
#2330000
1&
1F
b110101 a
#2340000
0&
0F
#2350000
1&
1F
b110110 a
#2360000
0&
0F
#2370000
1&
1F
b110111 a
#2380000
0&
0F
#2390000
1&
1F
b111000 a
#2400000
0&
0F
#2410000
1&
1F
b111001 a
#2420000
0&
0F
#2430000
1&
1F
b111010 a
#2440000
0&
0F
#2450000
1&
1F
b111011 a
#2460000
0&
0F
#2470000
1&
1F
b111100 a
#2480000
0&
0F
#2490000
1&
1F
b111101 a
#2500000
0&
0F
#2510000
1&
1F
b111110 a
#2520000
0&
0F
#2530000
1&
1F
b111111 a
#2540000
0&
0F
#2550000
1&
1F
b1000000 a
#2560000
0&
0F
#2570000
1&
1F
b1000001 a
#2580000
0&
0F
#2590000
1&
1F
b1000010 a
#2600000
0&
0F
#2610000
1&
1F
b1000011 a
#2620000
0&
0F
#2630000
1&
1F
b1000100 a
#2640000
0&
0F
#2650000
1&
1F
b1000101 a
#2660000
0&
0F
#2670000
1&
1F
b1000110 a
#2680000
0&
0F
#2690000
1&
1F
b1000111 a
#2700000
0&
0F
#2710000
1&
1F
b1001000 a
#2720000
0&
0F
#2730000
1&
1F
b1001001 a
#2740000
0&
0F
#2750000
1&
1F
b1001010 a
#2760000
0&
0F
#2770000
1&
1F
b1001011 a
#2780000
0&
0F
#2790000
1&
1F
b1001100 a
#2800000
0&
0F
#2810000
1&
1F
b1001101 a
#2820000
0&
0F
#2830000
1&
1F
b1001110 a
#2840000
0&
0F
#2850000
1&
1F
b1001111 a
#2860000
0&
0F
#2870000
1&
1F
b1010000 a
#2880000
0&
0F
#2890000
1&
1F
b1010001 a
#2900000
0&
0F
#2910000
1&
1F
b1010010 a
#2920000
0&
0F
#2930000
1&
1F
b1010011 a
#2940000
0&
0F
#2950000
1&
1F
b1010100 a
#2960000
0&
0F
#2970000
1&
1F
b1010101 a
#2980000
0&
0F
#2990000
1&
1F
b1010110 a
#3000000
0&
0F
#3010000
1&
1F
b1010111 a
#3020000
0&
0F
#3030000
1&
1F
b1011000 a
#3040000
0&
0F
#3050000
1&
1F
b1011001 a
#3060000
0&
0F
#3070000
1&
1F
b1011010 a
#3080000
0&
0F
#3090000
1&
1F
b1011011 a
#3100000
0&
0F
#3110000
1&
1F
b1011100 a
#3120000
0&
0F
#3130000
1&
1F
b1011101 a
#3140000
0&
0F
#3150000
1&
1F
b1011110 a
#3160000
0&
0F
#3170000
1&
1F
b1011111 a
#3180000
0&
0F
#3190000
1&
1F
b1100000 a
#3200000
0&
0F
#3210000
1&
1F
b1100001 a
#3220000
0&
0F
#3230000
1&
1F
b1100010 a
#3240000
0&
0F
#3250000
1&
1F
b1100011 a
#3260000
0&
0F
#3270000
1&
1F
b1100100 a
#3280000
0&
0F
#3290000
1&
1F
b1100101 a
b0 a
0j
b0 ^
08
#3300000
0&
0F
#3310000
1&
1F
b1 ^
#3320000
0&
0F
#3330000
1&
1F
1k
b1 a
17
#3340000
0&
0F
#3350000
1&
1F
b10 a
#3360000
0&
0F
#3370000
1&
1F
b11 a
#3380000
0&
0F
#3390000
1&
1F
b100 a
#3400000
0&
0F
#3410000
1&
1F
b101 a
#3420000
0&
0F
#3430000
1&
1F
b110 a
#3440000
0&
0F
#3450000
1&
1F
b111 a
#3460000
0&
0F
#3470000
1&
1F
b1000 a
#3480000
0&
0F
#3490000
1&
1F
b1001 a
#3500000
0&
0F
#3510000
1&
1F
b1010 a
#3520000
0&
0F
#3530000
1&
1F
b1011 a
#3540000
0&
0F
#3550000
1&
1F
b1100 a
#3560000
0&
0F
#3570000
1&
1F
b1101 a
#3580000
0&
0F
#3590000
1&
1F
b1110 a
#3600000
0&
0F
#3610000
1&
1F
b1111 a
#3620000
0&
0F
#3630000
1&
1F
b10000 a
#3640000
0&
0F
#3650000
1&
1F
b10001 a
#3660000
0&
0F
#3670000
1&
1F
b10010 a
#3680000
0&
0F
#3690000
1&
1F
b10011 a
#3700000
0&
0F
#3710000
1&
1F
b10100 a
#3720000
0&
0F
#3730000
1&
1F
b10101 a
#3740000
0&
0F
#3750000
1&
1F
b10110 a
#3760000
0&
0F
#3770000
1&
1F
b10111 a
#3780000
0&
0F
#3790000
1&
1F
b11000 a
#3800000
0&
0F
#3810000
1&
1F
b11001 a
#3820000
0&
0F
#3830000
1&
1F
b11010 a
#3840000
0&
0F
#3850000
1&
1F
b11011 a
#3860000
0&
0F
#3870000
1&
1F
b11100 a
#3880000
0&
0F
#3890000
1&
1F
b11101 a
#3900000
0&
0F
#3910000
1&
1F
b11110 a
#3920000
0&
0F
#3930000
1&
1F
b11111 a
#3940000
0&
0F
#3950000
1&
1F
b100000 a
#3960000
0&
0F
#3970000
1&
1F
b100001 a
#3980000
0&
0F
#3990000
1&
1F
b100010 a
#4000000
0&
0F
#4010000
1&
1F
b100011 a
#4020000
0&
0F
#4030000
1&
1F
b100100 a
#4040000
0&
0F
#4050000
1&
1F
b100101 a
#4060000
0&
0F
#4070000
1&
1F
b100110 a
#4080000
0&
0F
#4090000
1&
1F
b100111 a
#4100000
0&
0F
#4110000
1&
1F
b101000 a
#4120000
0&
0F
#4130000
1&
1F
b101001 a
#4140000
0&
0F
#4150000
1&
1F
b101010 a
#4160000
0&
0F
#4170000
1&
1F
b101011 a
#4180000
0&
0F
#4190000
1&
1F
b101100 a
#4200000
0&
0F
#4210000
1&
1F
b101101 a
#4220000
b1 '
b1001 '
0&
1\
1Y
0F
#4230000
1&
1F
b1001 i
b101110 a
b1001 c
1g
1d
1<
19
#4240000
b1000 '
b0 '
0&
0\
0Y
0F
#4250000
1&
1F
b101111 a
#4260000
0&
0F
#4270000
1&
1F
b110000 a
#4280000
0&
0F
#4290000
1&
1F
b110001 a
#4300000
0&
0F
#4310000
1&
1F
b110010 a
#4320000
0&
0F
#4330000
1&
1F
b110011 a
b0 a
b10 `
b0 ^
b100100 m
0/
1-
0,
0+
0)
#4340000
0&
0F
#4350000
1&
1F
b0 h
0k
b10 ^
b0 b
07
0e
0:
#4360000
0&
0F
#4370000
1&
1F
1j
b1 a
18
#4380000
0&
0F
#4390000
1&
1F
b10 a
#4400000
0&
0F
#4410000
1&
1F
b11 a
#4420000
0&
0F
#4430000
1&
1F
b100 a
#4440000
0&
0F
#4450000
1&
1F
b101 a
#4460000
0&
0F
#4470000
1&
1F
b110 a
#4480000
0&
0F
#4490000
1&
1F
b111 a
#4500000
0&
0F
#4510000
1&
1F
b1000 a
#4520000
0&
0F
#4530000
1&
1F
b1001 a
#4540000
0&
0F
#4550000
1&
1F
b1010 a
#4560000
0&
0F
#4570000
1&
1F
b1011 a
#4580000
0&
0F
#4590000
1&
1F
b1100 a
#4600000
0&
0F
#4610000
1&
1F
b1101 a
#4620000
0&
0F
#4630000
1&
1F
b1110 a
#4640000
0&
0F
#4650000
1&
1F
b1111 a
#4660000
0&
0F
#4670000
1&
1F
b10000 a
#4680000
0&
0F
#4690000
1&
1F
b10001 a
#4700000
0&
0F
#4710000
1&
1F
b10010 a
#4720000
0&
0F
#4730000
1&
1F
b10011 a
#4740000
0&
0F
#4750000
1&
1F
b10100 a
#4760000
0&
0F
#4770000
1&
1F
b10101 a
#4780000
0&
0F
#4790000
1&
1F
b10110 a
#4800000
0&
0F
#4810000
1&
1F
b10111 a
#4820000
0&
0F
#4830000
1&
1F
b11000 a
#4840000
0&
0F
#4850000
1&
1F
b11001 a
#4860000
0&
0F
#4870000
1&
1F
b11010 a
#4880000
0&
0F
#4890000
1&
1F
b11011 a
#4900000
0&
0F
#4910000
1&
1F
b11100 a
#4920000
0&
0F
#4930000
1&
1F
b11101 a
#4940000
0&
0F
#4950000
1&
1F
b11110 a
#4960000
0&
0F
#4970000
1&
1F
b11111 a
#4980000
0&
0F
#4990000
1&
1F
b100000 a
#5000000
0&
0F
#5010000
1&
1F
b100001 a
#5020000
0&
0F
#5030000
1&
1F
b100010 a
#5040000
0&
0F
#5050000
1&
1F
b100011 a
#5060000
0&
0F
#5070000
1&
1F
b100100 a
#5080000
0&
0F
#5090000
1&
1F
b100101 a
#5100000
0&
0F
#5110000
1&
1F
b100110 a
#5120000
0&
0F
#5130000
1&
1F
b100111 a
#5140000
0&
0F
#5150000
1&
1F
b101000 a
#5160000
0&
0F
#5170000
1&
1F
b101001 a
#5180000
0&
0F
#5190000
1&
1F
b101010 a
#5200000
0&
0F
#5210000
1&
1F
b101011 a
#5220000
0&
0F
#5230000
1&
1F
b101100 a
#5240000
0&
0F
#5250000
1&
1F
b101101 a
#5260000
0&
0F
#5270000
1&
1F
b101110 a
#5280000
0&
0F
#5290000
1&
1F
b101111 a
#5300000
0&
0F
#5310000
1&
1F
b110000 a
#5320000
0&
0F
#5330000
1&
1F
b110001 a
#5340000
0&
0F
#5350000
1&
1F
b110010 a
#5360000
0&
0F
#5370000
1&
1F
b110011 a
#5380000
0&
0F
#5390000
1&
1F
b110100 a
#5400000
0&
0F
#5410000
1&
1F
b110101 a
#5420000
0&
0F
#5430000
1&
1F
b110110 a
#5440000
0&
0F
#5450000
1&
1F
b110111 a
#5460000
0&
0F
#5470000
1&
1F
b111000 a
#5480000
0&
0F
#5490000
1&
1F
b111001 a
#5500000
0&
0F
#5510000
1&
1F
b111010 a
#5520000
0&
0F
#5530000
1&
1F
b111011 a
#5540000
0&
0F
#5550000
1&
1F
b111100 a
#5560000
0&
0F
#5570000
1&
1F
b111101 a
#5580000
0&
0F
#5590000
1&
1F
b111110 a
#5600000
0&
0F
#5610000
1&
1F
b111111 a
#5620000
0&
0F
#5630000
1&
1F
b1000000 a
#5640000
0&
0F
#5650000
1&
1F
b1000001 a
#5660000
0&
0F
#5670000
1&
1F
b1000010 a
#5680000
0&
0F
#5690000
1&
1F
b1000011 a
#5700000
0&
0F
#5710000
1&
1F
b1000100 a
#5720000
0&
0F
#5730000
1&
1F
b1000101 a
#5740000
0&
0F
#5750000
1&
1F
b1000110 a
#5760000
0&
0F
#5770000
1&
1F
b1000111 a
#5780000
0&
0F
#5790000
1&
1F
b1001000 a
#5800000
0&
0F
#5810000
1&
1F
b1001001 a
#5820000
0&
0F
#5830000
1&
1F
b1001010 a
#5840000
0&
0F
#5850000
1&
1F
b1001011 a
#5860000
0&
0F
#5870000
1&
1F
b1001100 a
#5880000
0&
0F
#5890000
1&
1F
b1001101 a
#5900000
0&
0F
#5910000
1&
1F
b1001110 a
#5920000
0&
0F
#5930000
1&
1F
b1001111 a
#5940000
0&
0F
#5950000
1&
1F
b1010000 a
#5960000
0&
0F
#5970000
1&
1F
b1010001 a
#5980000
0&
0F
#5990000
1&
1F
b1010010 a
#6000000
0&
0F
#6010000
1&
1F
b1010011 a
#6020000
0&
0F
#6030000
1&
1F
b1010100 a
#6040000
0&
0F
#6050000
1&
1F
b1010101 a
#6060000
0&
0F
#6070000
1&
1F
b1010110 a
#6080000
0&
0F
#6090000
1&
1F
b1010111 a
#6100000
0&
0F
#6110000
1&
1F
b1011000 a
#6120000
0&
0F
#6130000
1&
1F
b1011001 a
#6140000
0&
0F
#6150000
1&
1F
b1011010 a
#6160000
0&
0F
#6170000
1&
1F
b1011011 a
#6180000
0&
0F
#6190000
1&
1F
b1011100 a
#6200000
0&
0F
#6210000
1&
1F
b1011101 a
#6220000
0&
0F
#6230000
1&
1F
b1011110 a
#6240000
0&
0F
#6250000
1&
1F
b1011111 a
#6260000
0&
0F
#6270000
1&
1F
b1100000 a
#6280000
0&
0F
#6290000
1&
1F
b1100001 a
#6300000
0&
0F
#6310000
1&
1F
b1100010 a
#6320000
0&
0F
#6330000
1&
1F
b1100011 a
#6340000
0&
0F
#6350000
1&
1F
b1100100 a
#6360000
0&
0F
#6370000
1&
1F
b1100101 a
b0 a
0j
b0 ^
08
#6380000
0&
0F
#6390000
1&
1F
b1 ^
#6400000
0&
0F
#6410000
1&
1F
1k
b1 a
17
#6420000
0&
0F
#6430000
1&
1F
b10 a
#6440000
0&
0F
#6450000
1&
1F
b11 a
#6460000
0&
0F
#6470000
1&
1F
b100 a
#6480000
0&
0F
#6490000
1&
1F
b101 a
#6500000
0&
0F
#6510000
1&
1F
b110 a
#6520000
0&
0F
#6530000
1&
1F
b111 a
#6540000
0&
0F
#6550000
1&
1F
b1000 a
#6560000
0&
0F
#6570000
1&
1F
b1001 a
#6580000
0&
0F
#6590000
1&
1F
b1010 a
#6600000
0&
0F
#6610000
1&
1F
b1011 a
#6620000
0&
0F
#6630000
1&
1F
b1100 a
#6640000
0&
0F
#6650000
1&
1F
b1101 a
#6660000
0&
0F
#6670000
1&
1F
b1110 a
#6680000
0&
0F
#6690000
1&
1F
b1111 a
#6700000
0&
0F
#6710000
1&
1F
b10000 a
#6720000
0&
0F
#6730000
1&
1F
b10001 a
#6740000
0&
0F
#6750000
1&
1F
b10010 a
#6760000
0&
0F
#6770000
1&
1F
b10011 a
#6780000
0&
0F
#6790000
1&
1F
b10100 a
#6800000
0&
0F
#6810000
1&
1F
b10101 a
#6820000
0&
0F
#6830000
1&
1F
b10110 a
#6840000
0&
0F
#6850000
1&
1F
b10111 a
#6860000
0&
0F
#6870000
1&
1F
b11000 a
#6880000
0&
0F
#6890000
1&
1F
b11001 a
#6900000
0&
0F
#6910000
1&
1F
b11010 a
#6920000
0&
0F
#6930000
1&
1F
b11011 a
#6940000
0&
0F
#6950000
1&
1F
b11100 a
#6960000
0&
0F
#6970000
1&
1F
b11101 a
#6980000
0&
0F
#6990000
1&
1F
b11110 a
#7000000
0&
0F
#7010000
1&
1F
b11111 a
#7020000
0&
0F
#7030000
1&
1F
b100000 a
#7040000
0&
0F
#7050000
1&
1F
b100001 a
#7060000
0&
0F
#7070000
1&
1F
b100010 a
#7080000
0&
0F
#7090000
1&
1F
b100011 a
#7100000
0&
0F
#7110000
1&
1F
b100100 a
#7120000
0&
0F
#7130000
1&
1F
b100101 a
#7140000
0&
0F
#7150000
1&
1F
b100110 a
#7160000
0&
0F
#7170000
1&
1F
b100111 a
#7180000
0&
0F
#7190000
1&
1F
b101000 a
#7200000
0&
0F
#7210000
1&
1F
b101001 a
#7220000
0&
0F
#7230000
1&
1F
b101010 a
#7240000
0&
0F
#7250000
1&
1F
b101011 a
#7260000
0&
0F
#7270000
1&
1F
b101100 a
#7280000
0&
0F
#7290000
1&
1F
b101101 a
#7300000
0&
0F
#7310000
1&
1F
b101110 a
#7320000
0&
0F
#7330000
1&
1F
b101111 a
#7340000
0&
0F
#7350000
1&
1F
b110000 a
#7360000
0&
0F
#7370000
1&
1F
b110001 a
#7380000
0&
0F
#7390000
1&
1F
b110010 a
#7400000
0&
0F
#7410000
1&
1F
b110011 a
b0 a
b11 `
b0 ^
b110000 m
0-
1+
#7420000
0&
0F
#7430000
1&
1F
b1 i
0k
b10 ^
b1 c
07
0d
09
#7440000
0&
0F
#7450000
1&
1F
1j
b1 a
18
#7460000
0&
0F
#7470000
1&
1F
b10 a
#7480000
0&
0F
#7490000
1&
1F
b11 a
#7500000
0&
0F
#7510000
1&
1F
b100 a
#7520000
0&
0F
#7530000
1&
1F
b101 a
#7540000
0&
0F
#7550000
1&
1F
b110 a
#7560000
0&
0F
#7570000
1&
1F
b111 a
#7580000
0&
0F
#7590000
1&
1F
b1000 a
#7600000
0&
0F
#7610000
1&
1F
b1001 a
#7620000
0&
0F
#7630000
1&
1F
b1010 a
#7640000
0&
0F
#7650000
1&
1F
b1011 a
#7660000
0&
0F
#7670000
1&
1F
b1100 a
#7680000
0&
0F
#7690000
1&
1F
b1101 a
#7700000
0&
0F
#7710000
1&
1F
b1110 a
#7720000
0&
0F
#7730000
1&
1F
b1111 a
#7740000
0&
0F
#7750000
1&
1F
b10000 a
#7760000
0&
0F
#7770000
1&
1F
b10001 a
#7780000
0&
0F
#7790000
1&
1F
b10010 a
#7800000
0&
0F
#7810000
1&
1F
b10011 a
#7820000
0&
0F
#7830000
1&
1F
b10100 a
#7840000
0&
0F
#7850000
1&
1F
b10101 a
#7860000
0&
0F
#7870000
1&
1F
b10110 a
#7880000
0&
0F
#7890000
1&
1F
b10111 a
#7900000
0&
0F
#7910000
1&
1F
b11000 a
#7920000
0&
0F
#7930000
1&
1F
b11001 a
#7940000
0&
0F
#7950000
1&
1F
b11010 a
#7960000
0&
0F
#7970000
1&
1F
b11011 a
#7980000
0&
0F
#7990000
1&
1F
b11100 a
#8000000
0&
0F
#8010000
1&
1F
b11101 a
#8020000
0&
0F
#8030000
1&
1F
b11110 a
#8040000
0&
0F
#8050000
1&
1F
b11111 a
#8060000
0&
0F
#8070000
1&
1F
b100000 a
#8080000
0&
0F
#8090000
1&
1F
b100001 a
#8100000
0&
0F
#8110000
1&
1F
b100010 a
#8120000
0&
0F
#8130000
1&
1F
b100011 a
#8140000
0&
0F
#8150000
1&
1F
b100100 a
#8160000
0&
0F
#8170000
1&
1F
b100101 a
#8180000
0&
0F
#8190000
1&
1F
b100110 a
#8200000
0&
0F
#8210000
1&
1F
b100111 a
#8220000
0&
0F
#8230000
1&
1F
b101000 a
#8240000
0&
0F
#8250000
1&
1F
b101001 a
#8260000
0&
0F
#8270000
1&
1F
b101010 a
#8280000
0&
0F
#8290000
1&
1F
b101011 a
#8300000
0&
0F
#8310000
1&
1F
b101100 a
#8320000
0&
0F
#8330000
1&
1F
b101101 a
#8340000
0&
0F
#8350000
1&
1F
b101110 a
#8360000
0&
0F
#8370000
1&
1F
b101111 a
#8380000
0&
0F
#8390000
1&
1F
b110000 a
#8400000
0&
0F
#8410000
1&
1F
b110001 a
#8420000
0&
0F
#8430000
1&
1F
b110010 a
#8440000
0&
0F
#8450000
1&
1F
b110011 a
#8460000
0&
0F
#8470000
1&
1F
b110100 a
#8480000
0&
0F
#8490000
1&
1F
b110101 a
#8500000
0&
0F
#8510000
1&
1F
b110110 a
#8520000
0&
0F
#8530000
1&
1F
b110111 a
#8540000
0&
0F
#8550000
1&
1F
b111000 a
#8560000
0&
0F
#8570000
1&
1F
b111001 a
#8580000
0&
0F
#8590000
1&
1F
b111010 a
#8600000
0&
0F
#8610000
1&
1F
b111011 a
#8620000
0&
0F
#8630000
1&
1F
b111100 a
#8640000
0&
0F
#8650000
1&
1F
b111101 a
#8660000
0&
0F
#8670000
1&
1F
b111110 a
#8680000
0&
0F
#8690000
1&
1F
b111111 a
#8700000
0&
0F
#8710000
1&
1F
b1000000 a
#8720000
0&
0F
#8730000
1&
1F
b1000001 a
#8740000
0&
0F
#8750000
1&
1F
b1000010 a
#8760000
0&
0F
#8770000
1&
1F
b1000011 a
#8780000
0&
0F
#8790000
1&
1F
b1000100 a
#8800000
0&
0F
#8810000
1&
1F
b1000101 a
#8820000
0&
0F
#8830000
1&
1F
b1000110 a
#8840000
0&
0F
#8850000
1&
1F
b1000111 a
#8860000
0&
0F
#8870000
1&
1F
b1001000 a
#8880000
0&
0F
#8890000
1&
1F
b1001001 a
#8900000
0&
0F
#8910000
1&
1F
b1001010 a
#8920000
0&
0F
#8930000
1&
1F
b1001011 a
#8940000
0&
0F
