tb_ElevatorFSM_concurrent.vcd
$date
	Fri Apr 25 22:24:36 2025
$end
$version
	ModelSim Version 10.5b
$end
$timescale
	1ps
$end

$scope module tb_ElevatorFSM_concurrent $end
$var parameter 32 ! CLK_HALF $end
$var parameter 32 " MOVE_CY $end
$var parameter 32 # DOOR_CY $end
$var reg 1 $ CLOCK_50 $end
$var reg 18 % SW [17:0] $end
$var reg 4 & KEY [3:0] $end
$var wire 1 ' HEX0 [6] $end
$var wire 1 ( HEX0 [5] $end
$var wire 1 ) HEX0 [4] $end
$var wire 1 * HEX0 [3] $end
$var wire 1 + HEX0 [2] $end
$var wire 1 , HEX0 [1] $end
$var wire 1 - HEX0 [0] $end
$var wire 1 . LEDG [8] $end
$var wire 1 / LEDG [7] $end
$var wire 1 0 LEDG [6] $end
$var wire 1 1 LEDG [5] $end
$var wire 1 2 LEDG [4] $end
$var wire 1 3 LEDG [3] $end
$var wire 1 4 LEDG [2] $end
$var wire 1 5 LEDG [1] $end
$var wire 1 6 LEDG [0] $end
$var wire 1 7 LEDR [3] $end
$var wire 1 8 LEDR [2] $end
$var wire 1 9 LEDR [1] $end
$var wire 1 : LEDR [0] $end

$scope function time_to_floor $end
$var integer 32 ; time_to_floor $end
$var integer 32 < floors $end
$upscope $end

$scope module uut $end
$var parameter 2 = FLOOR_MIN $end
$var parameter 2 > FLOOR_MAX $end
$var parameter 2 ? S_IDLE $end
$var parameter 2 @ S_MOVE $end
$var parameter 2 A S_DOOR $end
$var parameter 27 B MOVE_LIMIT $end
$var parameter 27 C DOOR_LIMIT $end
$var wire 1 D CLOCK_50 $end
$var wire 1 E KEY [3] $end
$var wire 1 F KEY [2] $end
$var wire 1 G KEY [1] $end
$var wire 1 H KEY [0] $end
$var wire 1 I SW [17] $end
$var wire 1 J SW [16] $end
$var wire 1 K SW [15] $end
$var wire 1 L SW [14] $end
$var wire 1 M SW [13] $end
$var wire 1 N SW [12] $end
$var wire 1 O SW [11] $end
$var wire 1 P SW [10] $end
$var wire 1 Q SW [9] $end
$var wire 1 R SW [8] $end
$var wire 1 S SW [7] $end
$var wire 1 T SW [6] $end
$var wire 1 U SW [5] $end
$var wire 1 V SW [4] $end
$var wire 1 W SW [3] $end
$var wire 1 X SW [2] $end
$var wire 1 Y SW [1] $end
$var wire 1 Z SW [0] $end
$var wire 1 ' HEX0 [6] $end
$var wire 1 ( HEX0 [5] $end
$var wire 1 ) HEX0 [4] $end
$var wire 1 * HEX0 [3] $end
$var wire 1 + HEX0 [2] $end
$var wire 1 , HEX0 [1] $end
$var wire 1 - HEX0 [0] $end
$var wire 1 . LEDG [8] $end
$var wire 1 / LEDG [7] $end
$var wire 1 0 LEDG [6] $end
$var wire 1 1 LEDG [5] $end
$var wire 1 2 LEDG [4] $end
$var wire 1 3 LEDG [3] $end
$var wire 1 4 LEDG [2] $end
$var wire 1 5 LEDG [1] $end
$var wire 1 6 LEDG [0] $end
$var wire 1 7 LEDR [3] $end
$var wire 1 8 LEDR [2] $end
$var wire 1 9 LEDR [1] $end
$var wire 1 : LEDR [0] $end
$var wire 1 [ reset_n $end
$var reg 2 \ state [1:0] $end
$var reg 1 ] dir_up $end
$var reg 2 ^ floor [1:0] $end
$var reg 27 _ timer [26:0] $end
$var reg 4 ` cabin_req [3:0] $end
$var reg 4 a ext_req [3:0] $end
$var wire 1 b pending [3] $end
$var wire 1 c pending [2] $end
$var wire 1 d pending [1] $end
$var wire 1 e pending [0] $end
$var reg 4 f next_cabin_req [3:0] $end
$var reg 4 g next_ext_req [3:0] $end
$var reg 1 h led_door $end
$var reg 1 i led_up $end
$var reg 1 j led_dn $end
$var reg 7 k hex_reg [6:0] $end
$upscope $end
$upscope $end
$enddefinitions $end
#0
$dumpvars
0$
b100000000000000000 %
b1111 &
b0 \
0]
b0 ^
b0 _
b0 `
b0 a
b0 f
b0 g
0h
0i
0j
b1000000 k
b1010 !
b110010 "
b1100100 #
b0 =
b11 >
b0 ?
b1 @
b10 A
b110010 B
b1100100 C
bx ;
bx <
0-
0,
0+
0*
0)
0(
1'
06
05
04
03
02
01
00
0/
0.
0:
09
08
07
0[
0e
0d
0c
0b
0Z
0Y
0X
0W
0V
0U
0T
0S
0R
0Q
0P
0O
0N
0M
0L
0K
0J
1I
1H
1G
1F
1E
0D
$end
#10000
1$
1D
#20000
0$
0D
#30000
1$
1D
#40000
0$
0D
#50000
1$
1D
#60000
0$
0D
#70000
1$
1D
#80000
0$
0D
#90000
1$
1D
#100000
b0 %
0$
0I
0D
1[
#110000
1$
1D
#120000
0$
0D
#130000
1$
1D
#140000
0$
0D
#150000
1$
1D
#160000
0$
0D
#170000
1$
1D
#180000
0$
0D
#190000
1$
1D
#200000
b1011 &
b10 %
0$
1Y
0F
0D
#210000
1$
1D
b100 f
b10 g
b100 `
b10 a
1d
1c
19
18
#220000
b1111 &
b0 %
b10 <
b111110100000 ;
0$
0Y
1F
0D
#230000
1$
1D
1]
b1 \
#240000
0$
0D
#250000
1$
1D
1i
b1 _
15
#260000
0$
0D
#270000
1$
1D
b10 _
#280000
0$
0D
#290000
1$
1D
b11 _
#300000
0$
0D
#310000
1$
1D
b100 _
#320000
0$
0D
#330000
1$
1D
b101 _
#340000
0$
0D
#350000
1$
1D
b110 _
#360000
0$
0D
#370000
1$
1D
b111 _
#380000
0$
0D
#390000
1$
1D
b1000 _
#400000
0$
0D
#410000
1$
1D
b1001 _
#420000
0$
0D
#430000
1$
1D
b1010 _
#440000
0$
0D
#450000
1$
1D
b1011 _
#460000
0$
0D
#470000
1$
1D
b1100 _
#480000
0$
0D
#490000
1$
1D
b1101 _
#500000
0$
0D
#510000
1$
1D
b1110 _
#520000
0$
0D
#530000
1$
1D
b1111 _
#540000
0$
0D
#550000
1$
1D
b10000 _
#560000
0$
0D
#570000
1$
1D
b10001 _
#580000
0$
0D
#590000
1$
1D
b10010 _
#600000
0$
0D
#610000
1$
1D
b10011 _
#620000
0$
0D
#630000
1$
1D
b10100 _
#640000
0$
0D
#650000
1$
1D
b10101 _
#660000
0$
0D
#670000
1$
1D
b10110 _
#680000
0$
0D
#690000
1$
1D
b10111 _
#700000
0$
0D
#710000
1$
1D
b11000 _
#720000
0$
0D
#730000
1$
1D
b11001 _
#740000
0$
0D
#750000
1$
1D
b11010 _
#760000
0$
0D
#770000
1$
1D
b11011 _
#780000
0$
0D
#790000
1$
1D
b11100 _
#800000
0$
0D
#810000
1$
1D
b11101 _
#820000
0$
0D
#830000
1$
1D
b11110 _
#840000
0$
0D
#850000
1$
1D
b11111 _
#860000
0$
0D
#870000
1$
1D
b100000 _
#880000
0$
0D
#890000
1$
1D
b100001 _
#900000
0$
0D
#910000
1$
1D
b100010 _
#920000
0$
0D
#930000
1$
1D
b100011 _
#940000
0$
0D
#950000
1$
1D
b100100 _
#960000
0$
0D
#970000
1$
1D
b100101 _
#980000
0$
0D
#990000
1$
1D
b100110 _
#1000000
0$
0D
#1010000
1$
1D
b100111 _
#1020000
0$
0D
#1030000
1$
1D
b101000 _
#1040000
0$
0D
#1050000
1$
1D
b101001 _
#1060000
0$
0D
#1070000
1$
1D
b101010 _
#1080000
0$
0D
#1090000
1$
1D
b101011 _
#1100000
0$
0D
#1110000
1$
1D
b101100 _
#1120000
0$
0D
#1130000
1$
1D
b101101 _
#1140000
0$
0D
#1150000
1$
1D
b101110 _
#1160000
0$
0D
#1170000
1$
1D
b101111 _
#1180000
0$
0D
#1190000
1$
1D
b110000 _
#1200000
0$
0D
#1210000
1$
1D
b110001 _
#1220000
0$
0D
#1230000
1$
1D
b110010 _
#1240000
0$
0D
#1250000
1$
1D
b110011 _
b0 _
b1 ^
b0 \
b1111001 k
1-
1*
1)
1(
#1260000
0$
0D
#1270000
1$
1D
b0 g
0i
b10 \
b0 a
05
0d
09
#1280000
0$
0D
#1290000
1$
1D
1h
b1 _
16
#1300000
0$
0D
#1310000
1$
1D
b10 _
#1320000
0$
0D
#1330000
1$
1D
b11 _
#1340000
0$
0D
#1350000
1$
1D
b100 _
#1360000
0$
0D
#1370000
1$
1D
b101 _
#1380000
0$
0D
#1390000
1$
1D
b110 _
#1400000
0$
0D
#1410000
1$
1D
b111 _
#1420000
0$
0D
#1430000
1$
1D
b1000 _
#1440000
0$
0D
#1450000
1$
1D
b1001 _
#1460000
0$
0D
#1470000
1$
1D
b1010 _
#1480000
0$
0D
#1490000
1$
1D
b1011 _
#1500000
0$
0D
#1510000
1$
1D
b1100 _
#1520000
0$
0D
#1530000
1$
1D
b1101 _
#1540000
0$
0D
#1550000
1$
1D
b1110 _
#1560000
0$
0D
#1570000
1$
1D
b1111 _
#1580000
0$
0D
#1590000
1$
1D
b10000 _
#1600000
0$
0D
#1610000
1$
1D
b10001 _
#1620000
0$
0D
#1630000
1$
1D
b10010 _
#1640000
0$
0D
#1650000
1$
1D
b10011 _
#1660000
0$
0D
#1670000
1$
1D
b10100 _
#1680000
0$
0D
#1690000
1$
1D
b10101 _
#1700000
0$
0D
#1710000
1$
1D
b10110 _
#1720000
0$
0D
#1730000
1$
1D
b10111 _
#1740000
0$
0D
#1750000
1$
1D
b11000 _
#1760000
0$
0D
#1770000
1$
1D
b11001 _
#1780000
0$
0D
#1790000
1$
1D
b11010 _
#1800000
0$
0D
#1810000
1$
1D
b11011 _
#1820000
0$
0D
#1830000
1$
1D
b11100 _
#1840000
0$
0D
#1850000
1$
1D
b11101 _
#1860000
0$
0D
#1870000
1$
1D
b11110 _
#1880000
0$
0D
#1890000
1$
1D
b11111 _
#1900000
0$
0D
#1910000
1$
1D
b100000 _
#1920000
0$
0D
#1930000
1$
1D
b100001 _
#1940000
0$
0D
#1950000
1$
1D
b100010 _
#1960000
0$
0D
#1970000
1$
1D
b100011 _
#1980000
0$
0D
#1990000
1$
1D
b100100 _
#2000000
0$
0D
#2010000
1$
1D
b100101 _
#2020000
0$
0D
#2030000
1$
1D
b100110 _
#2040000
0$
0D
#2050000
1$
1D
b100111 _
#2060000
0$
0D
#2070000
1$
1D
b101000 _
#2080000
0$
0D
#2090000
1$
1D
b101001 _
#2100000
0$
0D
#2110000
1$
1D
b101010 _
#2120000
0$
0D
#2130000
1$
1D
b101011 _
#2140000
0$
0D
#2150000
1$
1D
b101100 _
#2160000
0$
0D
#2170000
1$
1D
b101101 _
#2180000
0$
0D
#2190000
1$
1D
b101110 _
#2200000
0$
0D
#2210000
1$
1D
b101111 _
#2220000
0$
0D
#2230000
1$
1D
b110000 _
#2240000
0$
0D
#2250000
1$
1D
b110001 _
#2260000
0$
0D
#2270000
1$
1D
b110010 _
#2280000
0$
0D
#2290000
1$
1D
b110011 _
#2300000
0$
0D
#2310000
1$
1D
b110100 _
#2320000
0$
0D
#2330000
1$
1D
b110101 _
#2340000
0$
0D
#2350000
1$
1D
b110110 _
#2360000
0$
0D
#2370000
1$
1D
b110111 _
#2380000
0$
0D
#2390000
1$
1D
b111000 _
#2400000
0$
0D
#2410000
1$
1D
b111001 _
#2420000
0$
0D
#2430000
1$
1D
b111010 _
#2440000
0$
0D
#2450000
1$
1D
b111011 _
#2460000
0$
0D
#2470000
1$
1D
b111100 _
#2480000
0$
0D
#2490000
1$
1D
b111101 _
#2500000
0$
0D
#2510000
1$
1D
b111110 _
#2520000
0$
0D
#2530000
1$
1D
b111111 _
#2540000
0$
0D
#2550000
1$
1D
b1000000 _
#2560000
0$
0D
#2570000
1$
1D
b1000001 _
#2580000
0$
0D
#2590000
1$
1D
b1000010 _
#2600000
0$
0D
#2610000
1$
1D
b1000011 _
#2620000
0$
0D
#2630000
1$
1D
b1000100 _
#2640000
0$
0D
#2650000
1$
1D
b1000101 _
#2660000
0$
0D
#2670000
1$
1D
b1000110 _
#2680000
0$
0D
#2690000
1$
1D
b1000111 _
#2700000
0$
0D
#2710000
1$
1D
b1001000 _
#2720000
0$
0D
#2730000
1$
1D
b1001001 _
#2740000
0$
0D
#2750000
1$
1D
b1001010 _
#2760000
0$
0D
#2770000
1$
1D
b1001011 _
#2780000
0$
0D
#2790000
1$
1D
b1001100 _
#2800000
0$
0D
#2810000
1$
1D
b1001101 _
#2820000
0$
0D
#2830000
1$
1D
b1001110 _
#2840000
0$
0D
#2850000
1$
1D
b1001111 _
#2860000
0$
0D
#2870000
1$
1D
b1010000 _
#2880000
0$
0D
#2890000
1$
1D
b1010001 _
#2900000
0$
0D
#2910000
1$
1D
b1010010 _
#2920000
0$
0D
#2930000
1$
1D
b1010011 _
#2940000
0$
0D
#2950000
1$
1D
b1010100 _
#2960000
0$
0D
#2970000
1$
1D
b1010101 _
#2980000
0$
0D
#2990000
1$
1D
b1010110 _
#3000000
0$
0D
#3010000
1$
1D
b1010111 _
#3020000
0$
0D
#3030000
1$
1D
b1011000 _
#3040000
0$
0D
#3050000
1$
1D
b1011001 _
#3060000
0$
0D
#3070000
1$
1D
b1011010 _
#3080000
0$
0D
#3090000
1$
1D
b1011011 _
#3100000
0$
0D
#3110000
1$
1D
b1011100 _
#3120000
0$
0D
#3130000
1$
1D
b1011101 _
#3140000
0$
0D
#3150000
1$
1D
b1011110 _
#3160000
0$
0D
#3170000
1$
1D
b1011111 _
#3180000
0$
0D
#3190000
1$
1D
b1100000 _
#3200000
0$
0D
#3210000
1$
1D
b1100001 _
#3220000
0$
0D
#3230000
1$
1D
b1100010 _
#3240000
0$
0D
#3250000
1$
1D
b1100011 _
#3260000
0$
0D
#3270000
1$
1D
b1100100 _
#3280000
0$
0D
#3290000
1$
1D
b1100101 _
b0 _
0h
b0 \
06
#3300000
0$
0D
#3310000
1$
1D
b1 \
#3320000
0$
0D
#3330000
1$
1D
1i
b1 _
15
#3340000
0$
0D
#3350000
1$
1D
b10 _
#3360000
0$
0D
#3370000
1$
1D
b11 _
#3380000
0$
0D
#3390000
1$
1D
b100 _
#3400000
0$
0D
#3410000
1$
1D
b101 _
#3420000
0$
0D
#3430000
1$
1D
b110 _
#3440000
0$
0D
#3450000
1$
1D
b111 _
#3460000
0$
0D
#3470000
1$
1D
b1000 _
#3480000
0$
0D
#3490000
1$
1D
b1001 _
#3500000
0$
0D
#3510000
1$
1D
b1010 _
#3520000
0$
0D
#3530000
1$
1D
b1011 _
#3540000
0$
0D
#3550000
1$
1D
b1100 _
#3560000
0$
0D
#3570000
1$
1D
b1101 _
#3580000
0$
0D
#3590000
1$
1D
b1110 _
#3600000
0$
0D
#3610000
1$
1D
b1111 _
#3620000
0$
0D
#3630000
1$
1D
b10000 _
#3640000
0$
0D
#3650000
1$
1D
b10001 _
#3660000
0$
0D
#3670000
1$
1D
b10010 _
#3680000
0$
0D
#3690000
1$
1D
b10011 _
#3700000
0$
0D
#3710000
1$
1D
b10100 _
#3720000
0$
0D
#3730000
1$
1D
b10101 _
#3740000
0$
0D
#3750000
1$
1D
b10110 _
#3760000
0$
0D
#3770000
1$
1D
b10111 _
#3780000
0$
0D
#3790000
1$
1D
b11000 _
#3800000
0$
0D
#3810000
1$
1D
b11001 _
#3820000
0$
0D
#3830000
1$
1D
b11010 _
#3840000
0$
0D
#3850000
1$
1D
b11011 _
#3860000
0$
0D
#3870000
1$
1D
b11100 _
#3880000
0$
0D
#3890000
1$
1D
b11101 _
#3900000
0$
0D
#3910000
1$
1D
b11110 _
#3920000
0$
0D
#3930000
1$
1D
b11111 _
#3940000
0$
0D
#3950000
1$
1D
b100000 _
#3960000
0$
0D
#3970000
1$
1D
b100001 _
#3980000
0$
0D
#3990000
1$
1D
b100010 _
#4000000
0$
0D
#4010000
1$
1D
b100011 _
#4020000
0$
0D
#4030000
1$
1D
b100100 _
#4040000
0$
0D
#4050000
1$
1D
b100101 _
#4060000
0$
0D
#4070000
1$
1D
b100110 _
#4080000
0$
0D
#4090000
1$
1D
b100111 _
#4100000
0$
0D
#4110000
1$
1D
b101000 _
#4120000
0$
0D
#4130000
1$
1D
b101001 _
#4140000
0$
0D
#4150000
1$
1D
b101010 _
#4160000
0$
0D
#4170000
1$
1D
b101011 _
#4180000
0$
0D
#4190000
1$
1D
b101100 _
#4200000
0$
0D
#4210000
1$
1D
b101101 _
#4220000
0$
0D
#4230000
b1 %
b1001 %
1$
1Z
1W
1D
b1001 g
b101110 _
b1001 a
1e
1b
1:
17
#4240000
0$
0D
#4250000
b1000 %
b0 %
b11 <
b1001110001000 ;
1$
0Z
0W
1D
b101111 _
#4260000
0$
0D
#4270000
1$
1D
b110000 _
#4280000
0$
0D
#4290000
1$
1D
b110001 _
#4300000
0$
0D
#4310000
1$
1D
b110010 _
#4320000
0$
0D
#4330000
1$
1D
b110011 _
b0 _
b10 ^
b0 \
b100100 k
0-
1+
0*
0)
0'
#4340000
0$
0D
#4350000
1$
1D
b0 f
0i
b10 \
b0 `
05
0c
08
#4360000
0$
0D
#4370000
1$
1D
1h
b1 _
16
#4380000
0$
0D
#4390000
1$
1D
b10 _
#4400000
0$
0D
#4410000
1$
1D
b11 _
#4420000
0$
0D
#4430000
1$
1D
b100 _
#4440000
0$
0D
#4450000
1$
1D
b101 _
#4460000
0$
0D
#4470000
1$
1D
b110 _
#4480000
0$
0D
#4490000
1$
1D
b111 _
#4500000
0$
0D
#4510000
1$
1D
b1000 _
#4520000
0$
0D
#4530000
1$
1D
b1001 _
#4540000
0$
0D
#4550000
1$
1D
b1010 _
#4560000
0$
0D
#4570000
1$
1D
b1011 _
#4580000
0$
0D
#4590000
1$
1D
b1100 _
#4600000
0$
0D
#4610000
1$
1D
b1101 _
#4620000
0$
0D
#4630000
1$
1D
b1110 _
#4640000
0$
0D
#4650000
1$
1D
b1111 _
#4660000
0$
0D
#4670000
1$
1D
b10000 _
#4680000
0$
0D
#4690000
1$
1D
b10001 _
#4700000
0$
0D
#4710000
1$
1D
b10010 _
#4720000
0$
0D
#4730000
1$
1D
b10011 _
#4740000
0$
0D
#4750000
1$
1D
b10100 _
#4760000
0$
0D
#4770000
1$
1D
b10101 _
#4780000
0$
0D
#4790000
1$
1D
b10110 _
#4800000
0$
0D
#4810000
1$
1D
b10111 _
#4820000
0$
0D
#4830000
1$
1D
b11000 _
#4840000
0$
0D
#4850000
1$
1D
b11001 _
#4860000
0$
0D
#4870000
1$
1D
b11010 _
#4880000
0$
0D
#4890000
1$
1D
b11011 _
#4900000
0$
0D
#4910000
1$
1D
b11100 _
#4920000
0$
0D
#4930000
1$
1D
b11101 _
#4940000
0$
0D
#4950000
1$
1D
b11110 _
#4960000
0$
0D
#4970000
1$
1D
b11111 _
#4980000
0$
0D
#4990000
1$
1D
b100000 _
#5000000
0$
0D
#5010000
1$
1D
b100001 _
#5020000
0$
0D
#5030000
1$
1D
b100010 _
#5040000
0$
0D
#5050000
1$
1D
b100011 _
#5060000
0$
0D
#5070000
1$
1D
b100100 _
#5080000
0$
0D
#5090000
1$
1D
b100101 _
#5100000
0$
0D
#5110000
1$
1D
b100110 _
#5120000
0$
0D
#5130000
1$
1D
b100111 _
#5140000
0$
0D
#5150000
1$
1D
b101000 _
#5160000
0$
0D
#5170000
1$
1D
b101001 _
#5180000
0$
0D
#5190000
1$
1D
b101010 _
#5200000
0$
0D
#5210000
1$
1D
b101011 _
#5220000
0$
0D
#5230000
1$
1D
b101100 _
#5240000
0$
0D
#5250000
1$
1D
b101101 _
#5260000
0$
0D
#5270000
1$
1D
b101110 _
#5280000
0$
0D
#5290000
1$
1D
b101111 _
#5300000
0$
0D
#5310000
1$
1D
b110000 _
#5320000
0$
0D
#5330000
1$
1D
b110001 _
#5340000
0$
0D
#5350000
1$
1D
b110010 _
#5360000
0$
0D
#5370000
1$
1D
b110011 _
#5380000
0$
0D
#5390000
1$
1D
b110100 _
#5400000
0$
0D
#5410000
1$
1D
b110101 _
#5420000
0$
0D
#5430000
1$
1D
b110110 _
#5440000
0$
0D
#5450000
1$
1D
b110111 _
#5460000
0$
0D
#5470000
1$
1D
b111000 _
#5480000
0$
0D
#5490000
1$
1D
b111001 _
#5500000
0$
0D
#5510000
1$
1D
b111010 _
#5520000
0$
0D
#5530000
1$
1D
b111011 _
#5540000
0$
0D
#5550000
1$
1D
b111100 _
#5560000
0$
0D
#5570000
1$
1D
b111101 _
#5580000
0$
0D
#5590000
1$
1D
b111110 _
#5600000
0$
0D
#5610000
1$
1D
b111111 _
#5620000
0$
0D
#5630000
1$
1D
b1000000 _
#5640000
0$
0D
#5650000
1$
1D
b1000001 _
#5660000
0$
0D
#5670000
1$
1D
b1000010 _
#5680000
0$
0D
#5690000
1$
1D
b1000011 _
#5700000
0$
0D
#5710000
1$
1D
b1000100 _
#5720000
0$
0D
#5730000
1$
1D
b1000101 _
#5740000
0$
0D
#5750000
1$
1D
b1000110 _
#5760000
0$
0D
#5770000
1$
1D
b1000111 _
#5780000
0$
0D
#5790000
1$
1D
b1001000 _
#5800000
0$
0D
#5810000
1$
1D
b1001001 _
#5820000
0$
0D
#5830000
1$
1D
b1001010 _
#5840000
0$
0D
#5850000
1$
1D
b1001011 _
#5860000
0$
0D
#5870000
1$
1D
b1001100 _
#5880000
0$
0D
#5890000
1$
1D
b1001101 _
#5900000
0$
0D
#5910000
1$
1D
b1001110 _
#5920000
0$
0D
#5930000
1$
1D
b1001111 _
#5940000
0$
0D
#5950000
1$
1D
b1010000 _
#5960000
0$
0D
#5970000
1$
1D
b1010001 _
#5980000
0$
0D
#5990000
1$
1D
b1010010 _
#6000000
0$
0D
#6010000
1$
1D
b1010011 _
#6020000
0$
0D
#6030000
1$
1D
b1010100 _
#6040000
0$
0D
#6050000
1$
1D
b1010101 _
#6060000
0$
0D
#6070000
1$
1D
b1010110 _
#6080000
0$
0D
#6090000
1$
1D
b1010111 _
#6100000
0$
0D
#6110000
1$
1D
b1011000 _
#6120000
0$
0D
#6130000
1$
1D
b1011001 _
#6140000
0$
0D
#6150000
1$
1D
b1011010 _
#6160000
0$
0D
#6170000
1$
1D
b1011011 _
#6180000
0$
0D
#6190000
1$
1D
b1011100 _
#6200000
0$
0D
#6210000
1$
1D
b1011101 _
#6220000
0$
0D
#6230000
1$
1D
b1011110 _
#6240000
0$
0D
#6250000
1$
1D
b1011111 _
#6260000
0$
0D
#6270000
1$
1D
b1100000 _
#6280000
0$
0D
#6290000
1$
1D
b1100001 _
#6300000
0$
0D
#6310000
1$
1D
b1100010 _
#6320000
0$
0D
#6330000
1$
1D
b1100011 _
#6340000
0$
0D
#6350000
1$
1D
b1100100 _
#6360000
0$
0D
#6370000
1$
1D
b1100101 _
b0 _
0h
b0 \
06
#6380000
0$
0D
#6390000
1$
1D
b1 \
#6400000
0$
0D
#6410000
1$
1D
1i
b1 _
15
#6420000
0$
0D
#6430000
1$
1D
b10 _
#6440000
0$
0D
#6450000
1$
1D
b11 _
#6460000
0$
0D
#6470000
1$
1D
b100 _
#6480000
0$
0D
#6490000
1$
1D
b101 _
#6500000
0$
0D
#6510000
1$
1D
b110 _
#6520000
0$
0D
#6530000
1$
1D
b111 _
#6540000
0$
0D
#6550000
1$
1D
b1000 _
#6560000
0$
0D
#6570000
1$
1D
b1001 _
#6580000
0$
0D
#6590000
1$
1D
b1010 _
#6600000
0$
0D
#6610000
1$
1D
b1011 _
#6620000
0$
0D
#6630000
1$
1D
b1100 _
#6640000
0$
0D
#6650000
1$
1D
b1101 _
#6660000
0$
0D
#6670000
1$
1D
b1110 _
#6680000
0$
0D
#6690000
1$
1D
b1111 _
#6700000
0$
0D
#6710000
1$
1D
b10000 _
#6720000
0$
0D
#6730000
1$
1D
b10001 _
#6740000
0$
0D
#6750000
1$
1D
b10010 _
#6760000
0$
0D
#6770000
1$
1D
b10011 _
#6780000
0$
0D
#6790000
1$
1D
b10100 _
#6800000
0$
0D
#6810000
1$
1D
b10101 _
#6820000
0$
0D
#6830000
1$
1D
b10110 _
#6840000
0$
0D
#6850000
1$
1D
b10111 _
#6860000
0$
0D
#6870000
1$
1D
b11000 _
#6880000
0$
0D
#6890000
1$
1D
b11001 _
#6900000
0$
0D
#6910000
1$
1D
b11010 _
#6920000
0$
0D
#6930000
1$
1D
b11011 _
#6940000
0$
0D
#6950000
1$
1D
b11100 _
#6960000
0$
0D
#6970000
1$
1D
b11101 _
#6980000
0$
0D
#6990000
1$
1D
b11110 _
#7000000
0$
0D
#7010000
1$
1D
b11111 _
#7020000
0$
0D
#7030000
1$
1D
b100000 _
#7040000
0$
0D
#7050000
1$
1D
b100001 _
#7060000
0$
0D
#7070000
1$
1D
b100010 _
#7080000
0$
0D
#7090000
1$
1D
b100011 _
#7100000
0$
0D
#7110000
1$
1D
b100100 _
#7120000
0$
0D
#7130000
1$
1D
b100101 _
#7140000
0$
0D
#7150000
1$
1D
b100110 _
#7160000
0$
0D
#7170000
1$
1D
b100111 _
#7180000
0$
0D
#7190000
1$
1D
b101000 _
#7200000
0$
0D
#7210000
1$
1D
b101001 _
#7220000
0$
0D
#7230000
1$
1D
b101010 _
#7240000
0$
0D
#7250000
1$
1D
b101011 _
#7260000
0$
0D
#7270000
1$
1D
b101100 _
#7280000
0$
0D
#7290000
1$
1D
b101101 _
#7300000
0$
0D
#7310000
1$
1D
b101110 _
#7320000
0$
0D
#7330000
1$
1D
b101111 _
#7340000
0$
0D
#7350000
1$
1D
b110000 _
#7360000
0$
0D
#7370000
1$
1D
b110001 _
#7380000
0$
0D
#7390000
1$
1D
b110010 _
#7400000
0$
0D
#7410000
1$
1D
b110011 _
b0 _
b11 ^
b0 \
b110000 k
0+
1)
#7420000
0$
0D
#7430000
1$
1D
b1 g
0i
b10 \
b1 a
05
0b
07
#7440000
0$
0D
#7450000
1$
1D
1h
b1 _
16
#7460000
0$
0D
#7470000
1$
1D
b10 _
#7480000
0$
0D
#7490000
1$
1D
b11 _
#7500000
0$
0D
#7510000
1$
1D
b100 _
#7520000
0$
0D
#7530000
1$
1D
b101 _
#7540000
0$
0D
#7550000
1$
1D
b110 _
#7560000
0$
0D
#7570000
1$
1D
b111 _
#7580000
0$
0D
#7590000
1$
1D
b1000 _
#7600000
0$
0D
#7610000
1$
1D
b1001 _
#7620000
0$
0D
#7630000
1$
1D
b1010 _
#7640000
0$
0D
#7650000
1$
1D
b1011 _
#7660000
0$
0D
#7670000
1$
1D
b1100 _
#7680000
0$
0D
#7690000
1$
1D
b1101 _
#7700000
0$
0D
#7710000
1$
1D
b1110 _
#7720000
0$
0D
#7730000
1$
1D
b1111 _
#7740000
0$
0D
#7750000
1$
1D
b10000 _
#7760000
0$
0D
#7770000
1$
1D
b10001 _
#7780000
0$
0D
#7790000
1$
1D
b10010 _
#7800000
0$
0D
#7810000
1$
1D
b10011 _
#7820000
0$
0D
#7830000
1$
1D
b10100 _
#7840000
0$
0D
#7850000
1$
1D
b10101 _
#7860000
0$
0D
#7870000
1$
1D
b10110 _
#7880000
0$
0D
#7890000
1$
1D
b10111 _
#7900000
0$
0D
#7910000
1$
1D
b11000 _
#7920000
0$
0D
#7930000
1$
1D
b11001 _
#7940000
0$
0D
#7950000
1$
1D
b11010 _
#7960000
0$
0D
#7970000
1$
1D
b11011 _
#7980000
0$
0D
#7990000
1$
1D
b11100 _
#8000000
0$
0D
#8010000
1$
1D
b11101 _
#8020000
0$
0D
#8030000
1$
1D
b11110 _
#8040000
0$
0D
#8050000
1$
1D
b11111 _
#8060000
0$
0D
#8070000
1$
1D
b100000 _
#8080000
0$
0D
#8090000
1$
1D
b100001 _
#8100000
0$
0D
#8110000
1$
1D
b100010 _
#8120000
0$
0D
#8130000
1$
1D
b100011 _
#8140000
0$
0D
#8150000
1$
1D
b100100 _
#8160000
0$
0D
#8170000
1$
1D
b100101 _
#8180000
0$
0D
#8190000
1$
1D
b100110 _
#8200000
0$
0D
#8210000
1$
1D
b100111 _
#8220000
0$
0D
#8230000
1$
1D
b101000 _
#8240000
0$
0D
#8250000
1$
1D
b101001 _
#8260000
0$
0D
#8270000
1$
1D
b101010 _
#8280000
0$
0D
#8290000
1$
1D
b101011 _
#8300000
0$
0D
#8310000
1$
1D
b101100 _
#8320000
0$
0D
#8330000
1$
1D
b101101 _
#8340000
0$
0D
#8350000
1$
1D
b101110 _
#8360000
0$
0D
#8370000
1$
1D
b101111 _
#8380000
0$
0D
#8390000
1$
1D
b110000 _
#8400000
0$
0D
#8410000
1$
1D
b110001 _
#8420000
0$
0D
#8430000
1$
1D
b110010 _
#8440000
0$
0D
#8450000
1$
1D
b110011 _
#8460000
0$
0D
#8470000
1$
1D
b110100 _
#8480000
0$
0D
#8490000
1$
1D
b110101 _
#8500000
0$
0D
#8510000
1$
1D
b110110 _
#8520000
0$
0D
#8530000
1$
1D
b110111 _
#8540000
0$
0D
#8550000
1$
1D
b111000 _
#8560000
0$
0D
#8570000
1$
1D
b111001 _
#8580000
0$
0D
#8590000
1$
1D
b111010 _
#8600000
0$
0D
#8610000
1$
1D
b111011 _
#8620000
0$
0D
#8630000
1$
1D
b111100 _
#8640000
0$
0D
#8650000
1$
1D
b111101 _
#8660000
0$
0D
#8670000
1$
1D
b111110 _
#8680000
0$
0D
#8690000
1$
1D
b111111 _
#8700000
0$
0D
#8710000
1$
1D
b1000000 _
#8720000
0$
0D
#8730000
1$
1D
b1000001 _
#8740000
0$
0D
#8750000
1$
1D
b1000010 _
#8760000
0$
0D
#8770000
1$
1D
b1000011 _
#8780000
0$
0D
#8790000
1$
1D
b1000100 _
#8800000
0$
0D
#8810000
1$
1D
b1000101 _
#8820000
0$
0D
#8830000
1$
1D
b1000110 _
#8840000
0$
0D
#8850000
1$
1D
b1000111 _
#8860000
0$
0D
#8870000
1$
1D
b1001000 _
#8880000
0$
0D
#8890000
1$
1D
b1001001 _
#8900000
0$
0D
#8910000
1$
1D
b1001010 _
#8920000
0$
0D
#8930000
1$
1D
b1001011 _
#8940000
0$
0D
#8950000
1$
1D
b1001100 _
#8960000
0$
0D
